<?xml version="1.0" encoding="utf-8"?>
<!-- Generator: Adobe Illustrator 23.0.6, SVG Export Plug-In . SVG Version: 6.00 Build 0)  -->
<svg version="1.1" id="Layer_1" xmlns="http://www.w3.org/2000/svg" xmlns:xlink="http://www.w3.org/1999/xlink" x="0px" y="0px"
	 viewBox="0 0 992 439.9" style="enable-background:new 0 0 992 439.9;" xml:space="preserve">
<style type="text/css">
	.st0{fill:#CE9B9B;}
	.st1{fill:#422D51;}
	.st2{fill:#00B493;}
	.st3{fill:#009198;}
	.st4{opacity:0.24;}
	.st5{fill:#FCA054;}
	.st6{fill:#9E6235;}
	.st7{fill:#262B40;}
	.st8{fill:#0C0C0C;}
	.st9{fill:#FFFFFF;}
	.st10{fill:#C8BDD1;}
	.st11{fill:#B56326;}
	.st12{fill:#383838;}
	.st13{fill:#161616;}
	.st14{fill:#EE5050;}
	.st15{fill:#00053F;}
	.st16{fill:#FFBD9C;}
	.st17{fill:#C48362;}
	.st18{fill:#2D2D2D;}
	.st19{fill:#F8BD7A;}
	.st20{fill:#694582;}
	.st21{fill:#191919;}
	.st22{fill:#663A3A;}
	.st23{fill:#3F2222;}
	.st24{opacity:0.8;}
	.st25{fill:#111111;}
	.st26{fill:#432254;}
	.st27{fill:#1C1C1C;}
	.st28{fill:#D35050;}
</style>
<g>
	<g>
		<g>
			<g>
				<g>
					<path class="st0" d="M274,437.6H69.9c-0.4,0-0.7,0.3-0.7,0.7c0,0.4,0.3,0.7,0.7,0.7h204.2c0-0.1,0-0.2,0-0.2
						C274.1,438.5,274.1,438,274,437.6z"/>
				</g>
			</g>
		</g>
	</g>
</g>
<g>
	<g>
		<g>
			<g>
				<g>
					<g>
						<g>
							<path class="st1" d="M141,389.6c0,2.1-10.9,3.9-24.3,3.9s-24.3-1.8-24.3-3.9s11.2-2.5,24.7-2.5
								C130.4,387.1,141,387.5,141,389.6z"/>
						</g>
					</g>
				</g>
			</g>
		</g>
		<g>
			<g>
				<g>
					<g>
						<g>
							<path class="st2" d="M161.7,289.2c0,0,0,0.2,0,0.6c-0.2,4.7-2.5,36.7-20.9,63.9c-19.9,29.5-9.4,40.6-9.4,40.6h-11.6
								c0,0,5.1-86.4,41.4-104.8C161.4,289.4,161.5,289.3,161.7,289.2z"/>
						</g>
					</g>
				</g>
			</g>
		</g>
		<g>
			<g>
				<g>
					<g>
						<g>
							<g>
								<path class="st3" d="M161.7,289.2c0,0,0,0.2,0,0.6c-1.9,3.2-14.1,23.5-25,49.3c-12.2,28.9-9.9,51.9-9.9,52.1
									s-0.1,0.3-0.3,0.3l0,0c-0.1,0-0.3-0.1-0.3-0.3c0-0.2-2.4-23.4,9.9-52.4c11-25.9,23.2-46.3,25.1-49.4
									C161.4,289.4,161.5,289.3,161.7,289.2z"/>
							</g>
						</g>
					</g>
				</g>
			</g>
		</g>
		<g class="st4">
			<g>
				<g>
					<g>
						<g>
							<path d="M124,362.2l6,13c0,0-2,7.9-1.3,11.5c0.7,3.7,1,4.6,1,4.6h-3.4l-2.7-27.2L124,362.2z"/>
						</g>
					</g>
				</g>
			</g>
		</g>
		<g>
			<g>
				<g>
					<g>
						<g>
							<path class="st2" d="M119.4,394.3h-10c0,0-5.5-27.5-28.7-48.8c-0.3-0.3-0.4-0.7-0.3-1c0-0.2,0.1-0.4,0.3-0.5
								c0.3-0.3,0.7-0.5,1.1-0.4c5.4,1,16.8,4.9,28.8,19.9C127.4,384.3,119.4,394.3,119.4,394.3z"/>
						</g>
					</g>
				</g>
			</g>
		</g>
		<g>
			<g>
				<g>
					<g>
						<g>
							<path class="st2" d="M130,395.7h-9.7c0,0-1.6-4.6-9.7-32.3c-7.5-25.7,9.1-66.3,11.4-71.9l0,0c0.2-0.4,0.3-0.6,0.3-0.6
								c0.1,0,0.2-0.1,0.3-0.1c3.9-1.2,10.8,19.6,5.1,36.7C116.7,361,130,395.7,130,395.7z"/>
						</g>
					</g>
				</g>
			</g>
		</g>
		<g>
			<g>
				<g>
					<g>
						<g>
							<g>
								<path class="st3" d="M123.1,393.3c0.1,0.2,0,0.3-0.2,0.4h-0.1c-0.1,0-0.2-0.1-0.3-0.2c-4.7-12.4-9.9-39.8-4.7-64.7
									c4.4-21.5,4.4-34.3,4.3-37.2l0,0c0.2-0.4,0.3-0.6,0.3-0.6c0.1,0,0.2-0.1,0.3-0.1v0.1c0,0.1,0.8,13.4-4.3,38
									C113.3,353.7,118.4,381,123.1,393.3z"/>
							</g>
						</g>
					</g>
				</g>
			</g>
		</g>
		<g>
			<g>
				<g>
					<g>
						<g>
							<g>
								<path class="st3" d="M115.1,392.4c0,0.2-0.1,0.3-0.3,0.3l0,0c-0.2,0-0.3-0.1-0.3-0.3c-2.6-29.9-32.8-47.2-34.1-47.9
									c0-0.2,0.1-0.4,0.3-0.5C81.7,344.5,112.4,362,115.1,392.4z"/>
							</g>
						</g>
					</g>
				</g>
			</g>
		</g>
		<g>
			<g>
				<g>
					<g>
						<g>
							<path class="st5" d="M141,389.6l-0.8,7.7l-0.1,0.7l-0.6,6.2l-0.1,0.7l-3.4,34.4H95.7l-2.4-34.4v-0.7l-0.4-6.4v-0.7l-0.5-7.4
								c0,0,7,1.6,24.7,1.6C135.7,391.2,141,389.6,141,389.6z"/>
						</g>
					</g>
				</g>
			</g>
		</g>
	</g>
	<g>
		<g>
			<g>
				<path class="st6" d="M140.2,397.3l-0.1,0.7c-7.7,1.2-15.2,1.6-22.1,1.6c-10.2,0-19.1-0.9-25.2-1.8v-0.7
					C103.1,398.5,121.1,400.1,140.2,397.3z"/>
			</g>
		</g>
	</g>
	<g>
		<g>
			<g>
				<path class="st6" d="M139.6,404.1l-0.1,0.7c-7.8,1.2-15.4,1.6-22.3,1.6c-9.5,0-17.8-0.8-23.8-1.6v-0.7
					C103.8,405.5,121.1,406.9,139.6,404.1z"/>
			</g>
		</g>
	</g>
</g>
<g>
	<g>
		<g>
			<g>
				<g>
					<path class="st0" d="M1007.3,437.9H717.1c0.2,0.5,0.4,0.9,0.6,1.4h289.7c0.4,0,0.7-0.3,0.7-0.7
						C1008.1,438.2,1007.7,437.9,1007.3,437.9z"/>
				</g>
			</g>
		</g>
	</g>
</g>
<g>
	<g>
		<g>
			<g>
				<g>
					<g>
						<path class="st7" d="M958.4,432.8c0,0-3.8,3-14.4,3.7c-12.5,0.9-14.4-1-14.4-1l-1.6-31c-2.4-47.2-8.2-94.3-17.4-140.7
							l-3.9-19.6l9.2,1l15.7-10.1c0.5-0.3,0.9-0.8,1.2-1.4l0,0c1.1-2.9,4-9.5,4.5-6.4l8.8,59.7c4.3,29.1,7.3,58.3,8.9,87.6
							L958.4,432.8z"/>
					</g>
				</g>
			</g>
		</g>
	</g>
</g>
<g>
	<g>
		<g>
			<g>
				<g>
					<g>
						<g>
							<path class="st8" d="M857.6,436.7c-0.3,0.7,0.1,1.4,0.8,1.5c1.2,0.3,3,0.7,3.8,0.8c6.9,0.9,12.1,0.9,16.5,0.8
								c5.7-0.1,14.7-2.3,14.7-2.3v1.9h9.1c0,0,0.9-10.1-0.5-13.3c-0.7-1.7-5.1-6.1-5.1-6.1l-1.3,3.1l-18.2-4.6
								c0,0,6.6,8.1-1.4,10.9c-0.1,0.1-0.3,0.1-0.4,0.2c-0.4,0.2-0.6,0.6-1,0.8c-0.2,0.1-1.8,0.4-2.4,0.5c-0.2,0.1-0.3,0.1-0.5,0.1
								c-0.1,0-0.2,0.1-0.3,0.1c-0.2,0-0.4,0.1-0.5,0.1c-0.7,0.2-1.6,0.4-2.4,0.6h-0.1c-0.2,0-0.3,0.1-0.5,0.1l0,0
								c-0.1,0-0.2,0-0.3,0.1c-6.4,1.2-8.9,2.6-9.6,3.7c-0.1,0.1-0.1,0.2-0.1,0.2C857.9,435.9,857.8,436.3,857.6,436.7z"/>
						</g>
					</g>
				</g>
			</g>
		</g>
	</g>
</g>
<g>
	<g>
		<g>
			<g>
				<g>
					<path class="st9" d="M942.6,142.5l-7.1,62.5l-56.9,4H878l-0.1-1.5l-7-61.1l-0.9-28.3c-0.3-3.6,2-6.9,5.5-7.8l28.1-7.7l17.8,2.1
						l11.5,2.6L942.6,142.5z"/>
				</g>
			</g>
		</g>
	</g>
</g>
<g>
	<g>
		
			<rect x="897.2" y="110.9" transform="matrix(0.9993 -3.846336e-02 3.846336e-02 0.9993 -5.4441 34.6398)" class="st10" width="0.6" height="95.8"/>
	</g>
</g>
<g>
	<g>
		
			<rect x="915.3" y="107.9" transform="matrix(0.9996 -2.766517e-02 2.766517e-02 0.9996 -4.0012 25.39)" class="st10" width="0.6" height="98.8"/>
	</g>
</g>
<g>
	<g>
		<g>
			<g>
				<path class="st5" d="M228,419.2c0,0-29.9,1.8-29.9,8.8s32.8,3.4,32.8,3.4L228,419.2z"/>
			</g>
		</g>
	</g>
	<g>
		<g>
			<path class="st11" d="M209.9,431.4L209.9,431.4c-0.3,0-6.9-0.4-8.7-3.1c-0.3-0.4-0.3-0.8-0.1-1.3c0.9-2.2,8-3.6,8.8-3.8
				c0.2,0,0.3,0.1,0.4,0.2c0,0.2-0.1,0.3-0.2,0.4c-2.1,0.4-7.7,1.9-8.3,3.4c-0.1,0.2-0.1,0.4,0.1,0.7c1.6,2.4,8.1,2.8,8.2,2.8
				c0.2,0,0.3,0.2,0.3,0.3C210.2,431.3,210.1,431.4,209.9,431.4z"/>
		</g>
	</g>
	<g>
		<g>
			<path class="st11" d="M215.6,431.4c-0.2,0-0.3-0.1-0.3-0.3l-1.1-8.5c0-0.2,0.1-0.3,0.3-0.3s0.3,0.1,0.3,0.3l1.1,8.5
				C216,431.2,215.9,431.4,215.6,431.4C215.7,431.4,215.7,431.4,215.6,431.4z"/>
		</g>
	</g>
	<g>
		<g>
			<path class="st11" d="M221.1,430.9c-0.2,0-0.3-0.1-0.3-0.3l-1.1-8.5c0-0.2,0.1-0.3,0.3-0.3s0.3,0.1,0.3,0.3l1.1,8.5
				C221.4,430.7,221.3,430.9,221.1,430.9L221.1,430.9z"/>
		</g>
	</g>
</g>
<g>
	<g>
		<g>
			
				<rect x="227.8" y="373.3" transform="matrix(2.388118e-02 -0.9997 0.9997 2.388118e-02 -168.3554 632.1013)" class="st12" width="23.5" height="57.9"/>
		</g>
	</g>
</g>
<g>
	<g>
		<g>
			<path class="st12" d="M247.7,396c0.1,0.1,20.1-0.4,20.8-0.4c15.6-0.2,28.8-1.3,34.5,5.5c6.3,7.5,0.9,18.8-4.7,21
				c-5.7,2.2-67.5,9.4-67.5,9.4l-4.2-18l38.6-9.7L247.7,396z"/>
		</g>
	</g>
</g>
<g>
	<g>
		<g>
			<path class="st12" d="M229.9,395.7c-0.1,0.1-20.1-0.6-20.8-0.6c-15.6-0.4-28.8-1.5-34.5,5.2c-6.4,7.4-1.1,18.8,4.5,21
				s67.4,10,67.4,10l4.4-18l-38.5-10.1L229.9,395.7z"/>
		</g>
	</g>
</g>
<g>
	<g>
		<path class="st13" d="M249.4,419.7C249.4,419.7,249.3,419.7,249.4,419.7l-49.5-14c-0.2,0-0.3-0.2-0.2-0.4c0-0.2,0.2-0.3,0.4-0.2
			l49.4,14c0.2,0,0.3,0.2,0.2,0.4C249.6,419.6,249.5,419.7,249.4,419.7z"/>
	</g>
</g>
<g>
	<g>
		<path class="st13" d="M241.8,417.5c-0.1,0-0.3-0.1-0.3-0.2c0-0.2,0.1-0.3,0.2-0.4l40.8-11.3c0.2,0,0.3,0.1,0.4,0.2
			c0,0.2-0.1,0.3-0.2,0.4L241.8,417.5C241.9,417.5,241.8,417.5,241.8,417.5z"/>
	</g>
</g>
<g>
	<g>
		<path class="st13" d="M208.6,408.1c-0.1,0-0.1,0-0.2-0.1l-4.3-3.8c-0.1-0.1-0.1-0.3,0-0.4s0.3-0.1,0.4,0l4.3,3.8
			c0.1,0.1,0.1,0.3,0,0.4C208.8,408.1,208.7,408.1,208.6,408.1z"/>
	</g>
</g>
<g>
	<g>
		<path class="st13" d="M275.4,408.1c-0.1,0-0.2,0-0.2-0.1c-0.1-0.1-0.1-0.3,0-0.4l4.3-3.8c0.1-0.1,0.3-0.1,0.4,0
			c0.1,0.1,0.1,0.3,0,0.4l-4.3,3.8C275.5,408.1,275.5,408.1,275.4,408.1z"/>
	</g>
</g>
<g>
	<g>
		<g>
			<path class="st14" d="M266.1,395.4l-12.4,0.6l-30.7-0.3h-2.3c0,0-2.5-2.8-7.3-4.9c-0.7-0.3-2.3-48.6,6-59.8
				c0.1-0.2,0.3-0.4,0.4-0.5c0.2-0.2,0.3-0.3,0.5-0.5c0.1-0.1,0.1-0.1,0.2-0.2c0.3-0.3,0.5-0.5,0.8-0.6c0.1-0.1,0.1-0.1,0.2-0.1
				c0.3-0.2,0.6-0.3,0.9-0.5l0,0l0.1-0.1l0.1-0.1c12.6-6.3,26.5-2.4,26.5-2.4c0.9,0.5,2.8,1,5,1.9c0.4,0.2,0.8,0.4,1.2,0.5
				c0.5,0.2,1.1,0.5,1.6,0.8c0.2,0.1,0.4,0.2,0.6,0.3c0.9,0.5,1.7,1.1,2.5,1.7v0.1c0.9,0.7,1.7,1.5,2.4,2.5
				C266.4,339.3,266.1,395.4,266.1,395.4z"/>
		</g>
	</g>
</g>
<g>
	<g>
		<g>
			<g>
				<g>
					<g>
						<polygon class="st7" points="875.9,240.4 874.6,430.3 902.8,432.8 908.8,245.2 881.7,231.4 						"/>
					</g>
				</g>
			</g>
		</g>
	</g>
</g>
<g>
	<g>
		<g>
			<g>
				<g>
					<path class="st7" d="M938.7,250.4c-0.3,2.2-15.9,4.7-32.7,4c-16.8-0.6-30.9-2-30.1-14.1c1.5-24.6,0-31.6,9.6-28.7
						c10.7,3.2,50.3-3.7,50.3-3.7S939.2,246.3,938.7,250.4z"/>
				</g>
			</g>
		</g>
	</g>
	<g>
		<g>
			<path class="st15" d="M908.2,223.8c-1.2,0-2.3-1-2.3-2.2l-0.7-13.8h0.6l0.7,13.8c0,0.9,0.8,1.7,1.8,1.6l2.8-0.1v0.6L908.2,223.8
				C908.3,223.8,908.3,223.8,908.2,223.8z"/>
		</g>
	</g>
	<g>
		<g>
			<path class="st15" d="M911.3,229.8c-0.2,0-0.3-0.1-0.3-0.3l-0.6-17.8c0-0.2,0.1-0.3,0.3-0.3s0.3,0.1,0.3,0.3l0.6,17.8
				C911.6,229.6,911.5,229.8,911.3,229.8L911.3,229.8z"/>
		</g>
	</g>
</g>
<g>
	<g>
		<g>
			<g>
				<g>
					<path class="st16" d="M894.5,82c1.6,8.3-0.3,16.1-3.6,21.9c-1.9,3.4,0.8,7.6,4.7,7l24.2-3.6c0,0-13-15-8.1-31.4l-18,2.7
						C893.8,78.6,894,79.6,894.5,82z"/>
				</g>
			</g>
		</g>
	</g>
</g>
<g>
	<g>
		<g>
			<g>
				<g>
					<path class="st17" d="M893.7,84.3c0,0,11.1,6.2,15,3.3l2.1-1.9c0.2,2.5-4.1,6.7-7.3,6.6C900.1,92.1,895.2,88.5,893.7,84.3z"/>
				</g>
			</g>
		</g>
	</g>
</g>
<g>
	<g>
		<g>
			<g>
				<g>
					<path class="st18" d="M897.4,86.3C886,84.7,882,70.9,880.9,59.1c-0.3-3.1-0.4-6.1-0.4-8.7c0-0.1,0-0.2,0-0.3
						c0.2-12,7.5-17.9,18.6-18.1c15.3-0.2,22,6.7,21.8,18.8C920.8,63,926.2,90.2,897.4,86.3z"/>
				</g>
			</g>
		</g>
	</g>
</g>
<g>
	<g>
		<g>
			<g>
				<g>
					<path class="st16" d="M919.5,65.2c-0.1,12.6-7.3,25.2-16.3,25.1c-9.1-0.1-19-14.6-18.9-27.2s6.4-28.5,15.5-28.4
						C908.9,34.7,919.7,52.6,919.5,65.2z"/>
				</g>
			</g>
		</g>
	</g>
</g>
<g>
	<g>
		<g>
			<g>
				<g>
					<path class="st19" d="M923.5,105.2l-4.9,7.5l-14-2.9l-12.8,4.2l-7.3-6.2l1.5-1.2l0.5-0.4l0.9-0.7l0.9-0.7l3.8-3.1
						c0,0,17,3.6,22.7-2l5.6,3.6l0.9,0.7l0,0l0.5,0.4L923.5,105.2z"/>
				</g>
			</g>
		</g>
	</g>
</g>
<g>
	<g>
		<g>
			<g>
				<g>
					<path class="st17" d="M903.6,78c-0.1,0-0.1-0.1-0.2-0.1c-0.1-0.1-0.1-0.3,0.1-0.4c0.7-0.4,1.4-0.8,2.1-1.2
						c0.6-0.3,1.3-0.7,1.5-0.9c-3.1-1.8-4.5-5-3.8-8.6c0-0.2,0.2-0.3,0.3-0.2c0.2,0,0.3,0.2,0.2,0.3c-0.7,3.4,0.6,6.4,3.5,8
						c0.3,0.1,0.3,0.3,0.3,0.4c0,0.4-0.6,0.7-1.8,1.4c-0.6,0.3-1.4,0.7-2,1.2C903.8,78,903.7,78,903.6,78z"/>
				</g>
			</g>
		</g>
	</g>
</g>
<g>
	<g>
		<g>
			<g>
				<g>
					<g>
						<path class="st10" d="M906.9,123.9c0,1.6-0.6,3-1.3,3s-1.3-1.3-1.3-3c0-1.6,0.6-3,1.3-3C906.3,120.9,906.9,122.3,906.9,123.9z
							"/>
					</g>
				</g>
			</g>
		</g>
	</g>
	<g>
		<g>
			<g>
				<g>
					<g>
						<path class="st10" d="M907.6,140.5c0,1.6-0.6,3-1.3,3s-1.3-1.3-1.3-3c0-1.6,0.6-3,1.3-3S907.6,138.9,907.6,140.5z"/>
					</g>
				</g>
			</g>
		</g>
	</g>
	<g>
		<g>
			<g>
				<g>
					<g>
						<path class="st20" d="M908.2,157.1c0,1.6-0.6,3-1.3,3s-1.3-1.3-1.3-3c0-1.6,0.6-3,1.3-3C907.6,154.1,908.2,155.4,908.2,157.1z
							"/>
					</g>
				</g>
			</g>
		</g>
	</g>
	<g>
		<g>
			<g>
				<g>
					<g>
						<path class="st20" d="M908.9,173.7c0,1.6-0.6,3-1.3,3s-1.3-1.3-1.3-3c0-1.6,0.6-3,1.3-3C908.3,170.7,908.9,172,908.9,173.7z"
							/>
					</g>
				</g>
			</g>
		</g>
	</g>
	<g>
		<g>
			<g>
				<g>
					<g>
						<path class="st10" d="M909.5,190.4c0,1.6-0.6,3-1.3,3s-1.3-1.3-1.3-3c0-1.6,0.6-3,1.3-3C909,187.4,909.5,188.7,909.5,190.4z"
							/>
					</g>
				</g>
			</g>
		</g>
	</g>
</g>
<g>
	<g>
		<g>
			<g>
				<g>
					<g>
						<path class="st16" d="M889.6,68.2c3.3,3.7,4.8,7.7,3.3,9.1c-1.5,1.3-5.4-0.6-8.7-4.2c-3.3-3.7-4.8-7.7-3.3-9.1
							C882.4,62.6,886.3,64.5,889.6,68.2z"/>
					</g>
				</g>
			</g>
		</g>
	</g>
	<g>
		<g>
			<g>
				<g>
					<g>
						<path class="st17" d="M881.5,66.8c-0.1,0-0.2-0.1-0.2-0.2c-0.2-0.7-0.2-1.2,0.1-1.6c0.5-0.6,1.5-0.6,1.6-0.6s0.3,0.1,0.3,0.3
							c0,0.2-0.1,0.3-0.3,0.3s-0.8,0-1.1,0.4c-0.2,0.2-0.2,0.6,0,1.1c0,0.2,0,0.3-0.2,0.4C881.6,66.8,881.6,66.8,881.5,66.8z"/>
					</g>
				</g>
			</g>
		</g>
	</g>
	<g>
		<g>
			<g>
				<g>
					<g>
						<path class="st17" d="M886,72.6L886,72.6c-1.9-1-3.9-4.1-4-4.3c-0.1-0.1,0-0.3,0.1-0.4s0.3,0,0.4,0.1c0,0,2,3.2,3.7,4
							c0.1,0.1,0.2,0.2,0.1,0.4C886.3,72.6,886.1,72.7,886,72.6z"/>
					</g>
				</g>
			</g>
		</g>
	</g>
</g>
<g>
	<g>
		<g>
			<g>
				<g>
					<g>
						<path class="st18" d="M917.7,59.6c-0.2-0.8-6.6-2.4-9.5-1.1c-3,1.4-2.7,3.7-2.1,3.2c0.6-0.4,3.7-1.6,5.5-1.6
							C913.3,60.1,917.8,60.1,917.7,59.6z"/>
					</g>
				</g>
			</g>
		</g>
	</g>
</g>
<g>
	<g>
		<g>
			<g>
				<g>
					<g>
						<path class="st18" d="M886.2,64c0-0.8,5.6-4.2,8.8-3.7s3.6,2.8,2.9,2.5c-0.7-0.2-4-0.5-5.7,0C890.6,63.3,886.2,64.5,886.2,64z
							"/>
					</g>
				</g>
			</g>
		</g>
	</g>
</g>
<g>
	<g>
		<g>
			<g>
				<g>
					<g>
						<g>
							<polygon class="st18" points="914.4,64.4 909.1,65 909.3,66.3 915,65.2 							"/>
						</g>
					</g>
				</g>
			</g>
		</g>
	</g>
	<g>
		<g>
			<g>
				<g>
					<g>
						<g>
							<path class="st18" d="M910.7,67.2c0.2,1.2,0.9,2.1,1.7,2c0.7-0.1,1.1-1.2,1-2.4c-0.2-1.2-0.9-2.1-1.7-2
								C911,64.9,910.5,65.9,910.7,67.2z"/>
						</g>
					</g>
				</g>
			</g>
		</g>
	</g>
</g>
<g>
	<g>
		<g>
			<g>
				<g>
					<g>
						<g>
							<polygon class="st18" points="891.1,67.1 896.2,66 896.5,67.2 890.8,68.1 							"/>
						</g>
					</g>
				</g>
			</g>
		</g>
	</g>
	<g>
		<g>
			<g>
				<g>
					<g>
						<g>
							<path class="st18" d="M895.4,68.7c0.1,1.2-0.4,2.3-1.1,2.3c-0.7,0.1-1.4-0.9-1.5-2.1s0.4-2.3,1.1-2.3
								C894.6,66.5,895.3,67.5,895.4,68.7z"/>
						</g>
					</g>
				</g>
			</g>
		</g>
	</g>
</g>
<g>
	<g>
		<g>
			<g>
				<g>
					<path class="st17" d="M901.6,81.6c-1.3-0.3-2.2-0.6-2.3-0.7s-0.2-0.2-0.2-0.4c0.1-0.1,0.2-0.2,0.4-0.2c0,0,2.5,1,4.8,0.8
						c2.9-0.3,4.7-1.8,4.7-1.8c0.1-0.1,0.3-0.1,0.4,0c0.1,0.1,0.1,0.3,0,0.4s-1.9,1.7-5.1,2C903.4,81.9,902.5,81.8,901.6,81.6z"/>
				</g>
			</g>
		</g>
	</g>
</g>
<g>
	<g>
		<g>
			<g>
				<g>
					<path class="st21" d="M886.1,50.4l-1.3,6.6l0,0c-1.9,1-4.2-0.3-4.3-2.4c-0.1-1.5-0.1-2.9-0.1-4.2c0.1,0,0.1,0,0.2-0.1
						C881.5,50.9,882.8,49.3,886.1,50.4z"/>
				</g>
			</g>
		</g>
	</g>
</g>
<g>
	<g>
		<g>
			<g>
				<g>
					<path class="st18" d="M919,62.9l-3.5-10.2v-0.1v-0.1c0,0-0.2,0.1-0.6,0.2c-0.5,0.2-1.4,0.4-2.6,0.8l0,0
						c-7.2,2.1-24.7,6.5-29.6,2.3c-3.9-3.4-7.9-11.7,0.4-18.1c14.3-11.2,27.9-2.2,33.4,5.8s4,8.6,4.4,11.8
						C921.4,58.4,919,62.9,919,62.9z"/>
				</g>
			</g>
		</g>
	</g>
</g>
<g>
	<g>
		<g>
			<g>
				<g>
					<g>
						<path class="st13" d="M915.5,52.4L915.5,52.4c0,0-0.2,0.1-0.6,0.2c-0.5,0.2-1.4,0.4-2.6,0.8l0,0c0.9-1.1,3.9-6.4,3.7-8.5
							c0-0.1,0-0.1,0-0.2c0-0.2,0.1-0.3,0.3-0.3c0.1,0,0.3,0.1,0.3,0.3v0.1C916.9,49.5,916.2,51.4,915.5,52.4z"/>
					</g>
				</g>
			</g>
		</g>
	</g>
</g>
<g>
	<g>
		<g>
			<g>
				<g>
					<path class="st17" d="M903.7,84.7c-0.8-0.2-1.3-0.5-1.3-0.5c-0.1-0.1-0.2-0.3-0.1-0.4c0.1-0.1,0.3-0.2,0.4-0.1
						c0.1,0.1,1.9,1.3,3.8-0.3c0.1-0.1,0.3-0.1,0.4,0c0.1,0.1,0.1,0.3,0,0.4C905.7,84.8,904.6,84.8,903.7,84.7z"/>
				</g>
			</g>
		</g>
	</g>
</g>
<g>
	<g>
		<g>
			<path class="st22" d="M251.7,264.4c3.2,1.4,5.9,10.7,5.6,14.4c-0.5,7.6-2.7,9.4-2.7,9.4l-5.5-14.7
				C249.2,273.6,249.6,263.4,251.7,264.4z"/>
		</g>
	</g>
</g>
<g>
	<g>
		<g>
			<g>
				<g>
					<path class="st16" d="M251.4,327c0,0-2.1,4.7-13.1,5.1c-7.5,0.3-14.8-2.8-12.2-5.1c2.4-2.1,4-8.9,3.5-16.5c0-0.7-0.1-1.3-0.2-2
						c-0.1-1-0.3-1.9-0.4-2.9c-0.4-2.2-0.6-3.2-0.6-3.2l16.9-2.1c-1,3.5-1.5,6.7-1.5,9.4c0,0.4,0,0.7,0,1
						C244.3,322,251.4,327,251.4,327z"/>
				</g>
			</g>
		</g>
	</g>
</g>
<g>
	<g>
		<g>
			<g>
				<g>
					<path class="st17" d="M244.2,309.5c0,0.4-0.1,0.8-0.3,1.3c-0.9,2.3-4.2,4.9-6.7,4.7c-2.4-0.2-5.6-2.2-7.6-5
						c0-0.7-0.1-1.3-0.2-2c2.8,1.5,9.8,4.8,12.7,2.8l1.7-1.5L244.2,309.5z"/>
				</g>
			</g>
		</g>
	</g>
</g>
<g>
	<g>
		<g>
			<g>
				<g>
					<path class="st22" d="M231.4,307.9c-12-1.6-13.8-12.9-14.6-23.9c-0.2-2.9-0.2-5.8-0.1-8.1c0-0.1,0-0.2,0-0.3
						c0.5-11.2,8-14.1,18.4-14c14.3,0.1,19.7,4.3,19.3,15.6C254,288.5,260,311.8,231.4,307.9z"/>
				</g>
			</g>
		</g>
	</g>
</g>
<g>
	<g>
		<g>
			<g>
				<g>
					<path class="st16" d="M252.8,290.6c-0.4,11.8-7.3,23.4-15.8,23.1s-17.4-14-17-25.8s6.7-26.5,15.1-26.2
						C243.5,261.9,253.2,278.8,252.8,290.6z"/>
				</g>
			</g>
		</g>
	</g>
</g>
<g>
	<g>
		<g>
			<g>
				<g>
					<path class="st17" d="M238.5,302.7c0.1,0,0.1-0.1,0.1-0.2s0-0.3-0.2-0.3c-0.7-0.2-1.5-0.4-2.2-0.5c-0.6-0.1-1.3-0.3-1.6-0.4
						c2.3-2.4,2.7-5.6,1.1-8.7c-0.1-0.1-0.2-0.2-0.4-0.1c-0.1,0.1-0.2,0.2-0.1,0.4c1.5,2.9,1.2,5.9-1,8.1c-0.2,0.2-0.2,0.4-0.1,0.5
						c0.1,0.4,0.7,0.5,2,0.8c0.7,0.1,1.4,0.3,2.1,0.5C238.4,302.7,238.4,302.7,238.5,302.7z"/>
				</g>
			</g>
		</g>
	</g>
</g>
<g>
	<g>
		<g>
			<g>
				<g>
					<g>
						<path class="st23" d="M251.4,288.2c-0.1-0.7-6.1-2.4-8.9-1.2s-2.6,3.4-2,3s3.5-1.5,5.1-1.4
							C247.3,288.6,251.5,288.7,251.4,288.2z"/>
					</g>
				</g>
			</g>
		</g>
	</g>
</g>
<g>
	<g>
		<g>
			<g>
				<g>
					<g>
						<path class="st23" d="M221.4,290.8c0-0.7,5.3-3.8,8.3-3.3s3.3,2.7,2.7,2.4c-0.7-0.2-3.8-0.6-5.3-0.2
							C225.5,290.2,221.4,291.3,221.4,290.8z"/>
					</g>
				</g>
			</g>
		</g>
	</g>
</g>
<g>
	<g>
		<g>
			<g>
				<g>
					<g>
						<g>
							<polygon class="st18" points="226.1,293 231,292.1 231.2,293.3 225.8,293.9 							"/>
						</g>
					</g>
				</g>
			</g>
		</g>
	</g>
	<g>
		<g>
			<g>
				<g>
					<g>
						<g>
							<path class="st18" d="M230,294.5c0.1,1-0.4,1.9-1,2c-0.6,0-1.2-0.8-1.2-1.8c-0.1-1,0.4-1.9,1-2S230,293.4,230,294.5z"/>
						</g>
					</g>
				</g>
			</g>
		</g>
	</g>
</g>
<g>
	<g>
		<g>
			<g>
				<g>
					<g>
						<g>
							<polygon class="st18" points="247.7,292.5 242.8,291.6 242.6,292.8 248,293.4 							"/>
						</g>
					</g>
				</g>
			</g>
		</g>
	</g>
	<g>
		<g>
			<g>
				<g>
					<g>
						<g>
							<path class="st18" d="M243.8,294c-0.1,1,0.4,1.9,1,2c0.6,0,1.2-0.8,1.2-1.8c0.1-1-0.4-1.9-1-2
								C244.4,292.1,243.8,292.9,243.8,294z"/>
						</g>
					</g>
				</g>
			</g>
		</g>
	</g>
</g>
<g>
	<g>
		<g>
			<g>
				<g>
					<path class="st17" d="M235.7,305.5c-1.2-0.3-2.1-0.7-2.1-0.7c-0.1-0.1-0.2-0.2-0.1-0.4c0.1-0.1,0.2-0.2,0.4-0.1
						c0,0,2.3,1,4.4,0.9c2.8-0.2,4.5-1.6,4.5-1.6c0.1-0.1,0.3-0.1,0.4,0c0.1,0.1,0.1,0.3,0,0.4s-1.8,1.5-4.8,1.7
						C237.4,305.8,236.5,305.6,235.7,305.5z"/>
				</g>
			</g>
		</g>
	</g>
</g>
<g>
	<g>
		<g>
			<g>
				<g>
					<g>
						<path class="st22" d="M219.3,291.6l1.1-10v-0.1v-0.1c0,0,0.2,0,0.6,0c0.5,0,1.4,0.1,2.5,0.2l0,0c7,0.4,23.8,0.9,27.4-4
							c2.9-3.9,4.6-15.3-5.6-19c-25-9-25.7,4.6-29.1,13c-3.3,8.4-2.8,11.1-1.7,13.8C215.6,288.2,219.3,291.6,219.3,291.6z"/>
					</g>
				</g>
			</g>
		</g>
	</g>
	<g>
		<g>
			<g>
				<g>
					<g>
						<g>
							<path class="st23" d="M220.7,281.4c0,0-0.1,0,0.2,0c0.5,0,1.4,0.1,2.5,0.2l0,0c-1-0.8-4.8-5.1-5.1-6.9c0-0.1,0-0.1,0-0.2
								c0-0.2-0.2-0.2-0.3-0.2s-0.2,0.2-0.2,0.3v0.1C218.5,278.9,220.7,281.4,220.7,281.4z"/>
						</g>
					</g>
				</g>
			</g>
		</g>
	</g>
</g>
<g>
	<g>
		<g>
			<g>
				<g>
					<path class="st17" d="M237.3,308c-0.8-0.2-1.3-0.6-1.3-0.6c-0.1-0.1-0.2-0.3-0.1-0.4c0.1-0.1,0.3-0.2,0.4-0.1
						c0.1,0.1,1.9,1.3,3.9-0.2c0.1-0.1,0.3-0.1,0.4,0.1c0.1,0.1,0.1,0.3-0.1,0.4C239.3,308.2,238.1,308.2,237.3,308z"/>
				</g>
			</g>
		</g>
	</g>
</g>
<g>
	<g>
		<g>
			<g>
				<g>
					<g>
						<path class="st16" d="M224.8,292.7c3,3.5,4.3,7.3,2.9,8.6c-1.4,1.2-5-0.6-8-4.1s-4.3-7.3-2.9-8.6
							C218.2,287.3,221.8,289.2,224.8,292.7z"/>
					</g>
				</g>
			</g>
		</g>
	</g>
	<g>
		<g>
			<g>
				<g>
					<g>
						<path class="st17" d="M217.3,291.2c-0.1,0-0.2-0.1-0.2-0.2c-0.2-0.6-0.1-1.1,0.1-1.5c0.5-0.6,1.4-0.5,1.5-0.5s0.3,0.1,0.2,0.3
							c0,0.1-0.1,0.3-0.3,0.2c-0.2,0-0.8,0-1,0.3c-0.2,0.2-0.2,0.5-0.1,1c0,0.1,0,0.3-0.2,0.3C217.4,291.2,217.3,291.2,217.3,291.2z
							"/>
					</g>
				</g>
			</g>
		</g>
	</g>
	<g>
		<g>
			<g>
				<g>
					<g>
						<path class="st17" d="M221.3,296.8C221.3,296.8,221.3,296.7,221.3,296.8c-1.8-1-3.5-4-3.6-4.1s0-0.3,0.1-0.4s0.3,0,0.4,0.1
							c0,0,1.8,3,3.3,3.9c0.1,0.1,0.2,0.2,0.1,0.4C221.6,296.7,221.4,296.8,221.3,296.8z"/>
					</g>
				</g>
			</g>
		</g>
	</g>
</g>
<g>
	<g>
		<g>
			<g>
				<g>
					<g>
						<path class="st16" d="M254.1,295.1c-1.8,4.2-4.7,7.1-6.4,6.4s-1.7-4.8,0.1-9s4.7-7.1,6.4-6.4
							C256,286.8,255.9,290.8,254.1,295.1z"/>
					</g>
				</g>
			</g>
		</g>
	</g>
	<g>
		<g>
			<g>
				<g>
					<g>
						<path class="st17" d="M254.3,289.6L254.3,289.6c-0.1,0-0.2-0.2-0.2-0.3c0-0.2,0.1-0.7-0.2-1c-0.2-0.2-0.5-0.3-1-0.2
							c-0.1,0-0.3-0.1-0.3-0.2s0.1-0.3,0.2-0.3c0.6-0.1,1.1,0.1,1.4,0.4c0.5,0.6,0.3,1.5,0.3,1.5
							C254.6,289.5,254.5,289.6,254.3,289.6z"/>
					</g>
				</g>
			</g>
		</g>
	</g>
	<g>
		<g>
			<g>
				<g>
					<g>
						<path class="st17" d="M251.9,296.5c0,0-0.1,0-0.1-0.1c-0.1-0.1-0.1-0.3,0-0.4c1.3-1.2,2.2-4.5,2.2-4.6s0.2-0.2,0.3-0.2
							s0.2,0.2,0.2,0.3c0,0.1-1,3.5-2.4,4.8C252.1,296.5,252,296.5,251.9,296.5z"/>
					</g>
				</g>
			</g>
		</g>
	</g>
</g>
<g class="st24">
	<g>
		<g>
			<g>
				
					<rect x="976.8" y="225.3" transform="matrix(0.7151 -0.699 0.699 0.7151 117.7021 748.7827)" class="st9" width="1.3" height="9.4"/>
			</g>
		</g>
	</g>
	<g>
		<g>
			<g>
				
					<rect x="972.5" y="229.4" transform="matrix(0.7244 -0.6893 0.6893 0.7244 110.7314 737.0356)" class="st9" width="9.4" height="1.3"/>
			</g>
		</g>
	</g>
</g>
<g class="st24">
	<g>
		<g>
			<g>
				
					<rect x="839.2" y="92.9" transform="matrix(0.7151 -0.699 0.699 0.7151 171.039 614.848)" class="st9" width="1.3" height="9.4"/>
			</g>
		</g>
	</g>
	<g>
		<g>
			<g>
				
					<rect x="835.1" y="97.1" transform="matrix(0.7244 -0.6893 0.6893 0.7244 164.0228 605.8401)" class="st9" width="9.4" height="1.3"/>
			</g>
		</g>
	</g>
</g>
<g class="st24">
	<g>
		<g>
			<g>
				
					<rect x="407.7" y="225.7" transform="matrix(0.7151 -0.699 0.699 0.7151 -44.6904 351.0844)" class="st9" width="1.3" height="9.4"/>
			</g>
		</g>
	</g>
	<g>
		<g>
			<g>
				
					<rect x="403.6" y="229.8" transform="matrix(0.7244 -0.6893 0.6893 0.7244 -46.3515 344.9543)" class="st9" width="9.4" height="1.3"/>
			</g>
		</g>
	</g>
</g>
<g class="st24">
	<g>
		<g>
			<g>
				
					<rect x="292.2" y="294.3" transform="matrix(0.8116 -0.5843 0.5843 0.8116 -116.3715 229.0613)" class="st9" width="9.4" height="1.3"/>
			</g>
		</g>
	</g>
	<g>
		<g>
			<g>
				
					<rect x="296.1" y="290.2" transform="matrix(0.8193 -0.5733 0.5733 0.8193 -115.4529 223.4368)" class="st9" width="1.3" height="9.4"/>
			</g>
		</g>
	</g>
</g>
<g>
	<g>
		<g>
			<path class="st9" d="M443.9,144c-0.1,0-0.2,0-0.3-0.1l-6.8-4.4c-0.3-0.2-0.4-0.6-0.2-0.9c0.2-0.3,0.6-0.4,0.9-0.2l6.8,4.4
				c0.3,0.2,0.4,0.6,0.2,0.9C444.3,143.9,444.1,144,443.9,144z"/>
		</g>
	</g>
	<g>
		<g>
			<path class="st9" d="M447.5,140.9c-0.3,0-0.5-0.2-0.6-0.4l-2.2-7.3c-0.1-0.3,0.1-0.7,0.4-0.8s0.7,0.1,0.8,0.4l2.2,7.3
				c0.1,0.3-0.1,0.7-0.4,0.8C447.6,140.9,447.6,140.9,447.5,140.9z"/>
		</g>
	</g>
	<g>
		<g>
			<path class="st9" d="M453.5,139.7L453.5,139.7c-0.4,0-0.6-0.3-0.6-0.7l0.3-7.6c0-0.3,0.3-0.6,0.7-0.6c0.3,0,0.6,0.3,0.6,0.7
				l-0.3,7.6C454.1,139.4,453.8,139.7,453.5,139.7z"/>
		</g>
	</g>
	<g>
		<g>
			<path class="st9" d="M434.8,149c-0.3,0-0.6-0.3-0.6-0.6s0.3-0.6,0.6-0.6l8-0.1l0,0c0.3,0,0.6,0.3,0.6,0.6s-0.3,0.6-0.6,0.6
				L434.8,149L434.8,149z"/>
		</g>
	</g>
</g>
<g>
	<g>
		<g>
			<path class="st9" d="M236,364.7c-0.3,0-0.5-0.2-0.6-0.5l-2.1-7.5c-0.1-0.3,0.1-0.7,0.4-0.8c0.3-0.1,0.7,0.1,0.8,0.4l2.1,7.5
				c0.1,0.3-0.1,0.7-0.4,0.8C236.1,364.7,236,364.7,236,364.7z"/>
		</g>
	</g>
	<g>
		<g>
			<path class="st9" d="M240.7,364.8c-0.1,0-0.2,0-0.3-0.1c-0.3-0.1-0.5-0.5-0.3-0.8l3.2-6.9c0.1-0.3,0.5-0.4,0.8-0.3
				s0.5,0.5,0.3,0.8l-3.2,6.9C241.2,364.7,240.9,364.8,240.7,364.8z"/>
		</g>
	</g>
	<g>
		<g>
			<path class="st9" d="M246,367.8c-0.2,0-0.3-0.1-0.4-0.2c-0.2-0.2-0.3-0.6,0-0.9l5.3-5.5c0.2-0.2,0.6-0.3,0.9,0
				c0.2,0.2,0.3,0.6,0,0.9l-5.3,5.5C246.3,367.8,246.2,367.8,246,367.8z"/>
		</g>
	</g>
	<g>
		<g>
			<path class="st9" d="M231.8,367.6c-0.1,0-0.3-0.1-0.4-0.2l-6-5.3c-0.3-0.2-0.3-0.6-0.1-0.9s0.6-0.3,0.9-0.1l6,5.3
				c0.3,0.2,0.3,0.6,0.1,0.9C232.1,367.5,232,367.6,231.8,367.6z"/>
		</g>
	</g>
</g>
<g>
	<g>
		<g>
			<g>
				<path class="st5" d="M249.4,419.1c0,0,29.9,1.8,29.9,8.8s-32.8,3.4-32.8,3.4L249.4,419.1z"/>
			</g>
		</g>
	</g>
	<g>
		<g>
			<path class="st11" d="M267.6,431.3c-0.2,0-0.3-0.1-0.3-0.3c0-0.2,0.1-0.3,0.3-0.3c0.1,0,6.6-0.4,8.2-2.8c0.2-0.2,0.2-0.4,0.1-0.7
				c-0.7-1.6-6.2-3-8.3-3.4c-0.2,0-0.3-0.2-0.2-0.4c0-0.2,0.2-0.3,0.4-0.2c0.8,0.2,7.9,1.6,8.8,3.8c0.2,0.4,0.1,0.9-0.1,1.3
				C274.5,430.9,267.9,431.3,267.6,431.3L267.6,431.3z"/>
		</g>
	</g>
	<g>
		<g>
			<path class="st11" d="M261.8,431.3L261.8,431.3c-0.2,0-0.3-0.2-0.3-0.4l1.1-8.5c0-0.2,0.2-0.3,0.3-0.3c0.2,0,0.3,0.2,0.3,0.3
				l-1.1,8.5C262.1,431.2,262,431.3,261.8,431.3z"/>
		</g>
	</g>
	<g>
		<g>
			<path class="st11" d="M256.4,430.8C256.4,430.8,256.3,430.8,256.4,430.8c-0.2,0-0.3-0.2-0.3-0.4l1.1-8.5c0-0.2,0.2-0.3,0.3-0.3
				c0.2,0,0.3,0.2,0.3,0.3l-1.1,8.5C256.7,430.6,256.5,430.8,256.4,430.8z"/>
		</g>
	</g>
</g>
<g>
	<g>
		<g>
			<path class="st9" d="M922,104.2l-4.7,5.8c-0.1,0.1-0.2,0.1-0.3,0.1l-12.3-3.3l-11.8,4.5h-0.1c-0.1,0-0.1,0-0.2-0.1
				c-1.6-1.1-4.6-3.3-6.5-4.7l0.5-0.4c1.7,1.2,4.3,3.1,6.2,4.5l11.7-4.4c0.1,0,0.1,0,0.2,0l12.2,3.2l4.6-5.6L922,104.2z"/>
		</g>
	</g>
</g>
<g>
	<g>
		<path class="st15" d="M953.1,435.4c0-0.3-0.8-29.1-2.9-58.3c-3.1-43.2-12.8-119.1-20.1-164.7l0.6-0.1
			c7.3,45.6,17.1,121.6,20.1,164.8c2.1,29.2,2.9,58,2.9,58.3H953.1z"/>
	</g>
</g>
<g>
	<g>
		<polygon class="st15" points="880.5,430.8 879.8,430.8 882.8,213.3 883.4,213.3 		"/>
	</g>
</g>
<g>
	<g>
		<g>
			<g>
				<g>
					<path class="st8" d="M957.8,439.1l-26.3,0.6v-0.2c-0.1-4.1,1.2-5.2,4.1-7.2c2.1-1.4,4.1-1.9,7.8-2.3c3.8-0.4,5.3,0,8.4,1.2
						C955.1,432.5,957.7,435,957.8,439.1L957.8,439.1z"/>
				</g>
			</g>
		</g>
	</g>
</g>
<g>
	<g>
		<g>
			<g>
				<g>
					<g>
						<path class="st25" d="M877.4,216.7c0.8-0.2,58.7-4.4,58.7-4.4l-0.5-8.7l-57.8,4.7L877.4,216.7z"/>
					</g>
				</g>
			</g>
		</g>
	</g>
	<g>
		<g>
			<g>
				<g>
					<g>
						
							<rect x="891.6" y="207.1" transform="matrix(0.998 -6.322757e-02 6.322757e-02 0.998 -11.592 56.892)" class="st7" width="3" height="9"/>
					</g>
				</g>
			</g>
		</g>
	</g>
	<g>
		<g>
			<g>
				<g>
					<g>
						<polygon class="st7" points="930.7,212.7 927.7,212.9 927.2,204.3 930.2,204.1 						"/>
					</g>
				</g>
			</g>
		</g>
	</g>
	<g>
		<g>
			<g>
				<g>
					<g>
						<polygon class="st7" points="921.8,213.8 918.8,214 918.3,205 921.3,204.8 						"/>
					</g>
				</g>
			</g>
		</g>
	</g>
	<g>
		<g>
			<g>
				<g>
					<g>
						<polygon class="st7" points="886.4,216 883.4,216.9 882.9,208 885.9,207.7 						"/>
					</g>
				</g>
			</g>
		</g>
	</g>
	<g>
		<g>
			<g>
				<g>
					<g>
						<polygon class="st19" points="913.5,214 903.2,214.7 902.6,206.3 913,205.5 						"/>
					</g>
				</g>
			</g>
		</g>
	</g>
</g>
<g>
	<g>
		<g>
			<g>
				<g>
					<g>
						<g>
							<g>
								<path class="st16" d="M880.2,227.6c-1.1,0-0.4-8-2-4.6c-0.5,1.1,0.2,6.1-0.3,10.6c-0.1,1.3,0,4.5-0.7,5.2
									c-0.3,0.3-0.6-0.1-0.8-0.2c-0.1,0-0.1,0-0.2,0.1c-0.2,0.3-0.3,0.8-0.4,1.3l0,0c-0.1,0.4-0.3,0.8-0.5,0.9
									c-0.2,0.2-0.6-0.1-0.9-0.2c-0.1-0.1-0.3-0.1-0.4,0c-0.1,0-0.2,0.2-0.3,0.3l0,0c-0.2,0.3-0.4,0.7-0.7,0.7
									c-0.2,0-0.4-0.4-0.6-0.7c-0.1-0.1-0.2-0.2-0.3-0.3c-0.1,0-0.2,0-0.3,0c-0.4,0.1-0.9,0.7-1.1-0.2c-0.9-4.3,0-17.5-3-24.5
									c-1.2-2.9,10.7-8.9,10.7-8.9s1.3,3.4,2.5,10.4C881.2,219.2,883.1,227.6,880.2,227.6z"/>
							</g>
						</g>
					</g>
				</g>
			</g>
		</g>
	</g>
	<g>
		<g>
			<g>
				<g>
					<g>
						<g>
							<g>
								<g>
									<path class="st17" d="M874.4,240.8c-0.1-0.1-0.3-0.1-0.4,0c-0.1,0-0.2,0.2-0.3,0.3c-0.1-2.2-0.2-7.5-0.1-9
										c0-0.2,0.1-0.3,0.3-0.3s0.3,0.2,0.3,0.3C874.2,233.4,874.3,238.4,874.4,240.8z"/>
								</g>
							</g>
						</g>
					</g>
				</g>
			</g>
		</g>
	</g>
	<g>
		<g>
			<g>
				<g>
					<g>
						<g>
							<g>
								<g>
									<path class="st17" d="M876.4,238.6c-0.1,0-0.1,0-0.2,0.1c-0.2,0.3-0.3,0.8-0.4,1.3c0-2.2-0.1-8.8,0-10.3
										c0-0.2,0.2-0.3,0.3-0.3c0.2,0,0.3,0.2,0.3,0.3C876.3,231,876.3,235.8,876.4,238.6z"/>
								</g>
							</g>
						</g>
					</g>
				</g>
			</g>
		</g>
	</g>
	<g>
		<g>
			<g>
				<g>
					<g>
						<g>
							<g>
								<g>
									<path class="st17" d="M872.4,241.1c-0.1-0.1-0.2-0.2-0.3-0.3c-0.1,0-0.2,0-0.3,0c-0.1-4.5-0.2-10.4-0.2-10.7
										c0-0.2,0.1-0.3,0.3-0.4c0.2,0,0.3,0.1,0.3,0.3C872.3,230.4,872.4,238.1,872.4,241.1z"/>
								</g>
							</g>
						</g>
					</g>
				</g>
			</g>
		</g>
	</g>
	<g>
		<g>
			<g>
				<g>
					<g>
						<g>
							<g>
								<path class="st16" d="M875.4,204.8l3.4,5.5l-11.1,5.9l-0.7-0.9C867.1,215.3,869.8,208.9,875.4,204.8z"/>
							</g>
						</g>
					</g>
				</g>
			</g>
		</g>
	</g>
</g>
<g>
	<g>
		<g>
			<g>
				<g>
					<path class="st9" d="M864.7,173.6l16.2,34.5c0,0-3.7,6-5.3,7.5c-4.7,4.4-7.8,3.3-7.8,3.3l-21.2-30.4c-3.7-5.4-2.6-8.5-1.7-15
						c2.7-20.5,10.7-59.3,31-63.4c2.8-0.6,5.9,18.1,5.9,18.1l-16.7,44l-0.3,0.8l-0.1,0.4L864.7,173.6L864.7,173.6z"/>
				</g>
			</g>
		</g>
	</g>
</g>
<g>
	<g>
		<g>
			<path class="st10" d="M864.7,173.6L864.7,173.6l-5.6,1.3H859c-0.1,0-0.3-0.1-0.3-0.2c0-0.2,0.1-0.3,0.2-0.4l5.8-1.3V173.6z"/>
		</g>
	</g>
</g>
<g>
	<g>
		<path class="st10" d="M880.9,208.4c-0.1,0-0.2-0.1-0.3-0.2l-4.1-8.9c-0.1-0.2,0-0.3,0.2-0.4c0.2-0.1,0.3,0,0.4,0.2l4.1,8.9
			c0.1,0.2,0,0.3-0.2,0.4C881,208.4,881,208.4,880.9,208.4z"/>
	</g>
</g>
<g>
	<g>
		<path class="st10" d="M871.7,154.7L871.7,154.7c-0.2,0-0.3-0.2-0.3-0.4c3.8-20.9,3.3-29.7,3.3-29.8c0-0.2,0.1-0.3,0.3-0.3
			s0.3,0.1,0.3,0.3c0,0.1,0.5,8.9-3.3,29.9C872,154.6,871.9,154.7,871.7,154.7z"/>
	</g>
</g>
<g>
	<g>
		<path class="st10" d="M874.7,134.4c-0.2,0-0.3-0.1-0.3-0.3c0-1.8-1.9-7-1.9-7.1c-0.1-0.2,0-0.3,0.2-0.4s0.3,0,0.4,0.2
			c0.1,0.2,2,5.4,2,7.3C875,134.2,874.8,134.4,874.7,134.4z"/>
	</g>
</g>
<g>
	<g>
		<path class="st26" d="M936.6,409.8L936.6,409.8c-0.3-0.1-0.3-0.3-0.2-0.4c4.5-9.5,3.2-45.4,3.1-45.8c0-0.2,0.1-0.3,0.3-0.3
			s0.3,0.1,0.3,0.3c0.1,1.5,1.4,36.4-3.2,46.1C936.8,409.7,936.7,409.8,936.6,409.8z"/>
	</g>
</g>
<g>
	<g>
		<path class="st10" d="M924.8,169.9c0,3.7-1.5,6.8-3.4,6.8s-3.4-3-3.4-6.8c0-3.7,1.5-6.8,3.4-6.8
			C923.3,163.1,924.8,166.1,924.8,169.9z"/>
	</g>
</g>
<g>
	<g>
		<g>
			<g>
				<polygon class="st17" points="912.3,155.5 918.7,160.6 923.3,161.3 919.4,167.1 913.4,166.2 				"/>
			</g>
		</g>
	</g>
	<g>
		<g>
			<g>
				<path class="st27" d="M915.6,178.9h-11.3c-1,0-1.9-0.9-1.9-1.9v-24.7c0-1,0.9-1.9,1.9-1.9h11.3c1,0,1.9,0.9,1.9,1.9V177
					C917.5,178.1,916.7,178.9,915.6,178.9z"/>
			</g>
		</g>
	</g>
	<g>
		<g>
			<g>
				<path class="st16" d="M923.6,161.2c0,0-5.5,0.8-8.5,2.9c-2.6,1.9-2.8,7.8-0.2,9.2c0.6,0.3,1.2,0.5,1.9,0.7
					c2.8,0.7,5.8,0.2,8.5-1l4.6-2.2L923.6,161.2z"/>
			</g>
		</g>
	</g>
	<g>
		<g>
			<g>
				<path class="st16" d="M916.8,163.2c0,0-14.5,0.9-15,2c-0.4,0.9,6.1,1.6,9.1,1.4c2.9-0.2,5.5-0.2,5.5-0.2L916.8,163.2z"/>
			</g>
		</g>
	</g>
	<g>
		<g>
			<g>
				<path class="st16" d="M915.5,166.8l-6.7,0.4c0,0-4.8-0.1-6.5,0.1c-1.2,0.1-1.2,1-1.1,1.3c0.3,1.3,6.7,0.9,9.7,0.7
					c2.9-0.2,5.5-0.2,5.5-0.2L915.5,166.8z"/>
			</g>
		</g>
	</g>
	<g>
		<g>
			<g>
				<path class="st16" d="M916.2,169.6l-7.6,0.5c0,0-6.2,0-6.5,0c-1.1,0.2-0.9,1.6-0.1,1.8c1.6,0.6,7,0.4,9.5,0.2
					c2.9-0.2,5.6-0.1,5.6-0.1L916.2,169.6z"/>
			</g>
		</g>
	</g>
	<g>
		<g>
			<g>
				<path class="st16" d="M918.7,172.1c0,0-8.4,0.4-12.1,0.9c-1.1,0.1-1.2,0.5-1.2,0.9c0,0.5,1.8,0.7,2.2,0.8c2.7,0.1,4,0.1,6.6-0.1
					c2.9-0.2,5.7-0.2,5.7-0.2L918.7,172.1z"/>
			</g>
		</g>
	</g>
</g>
<g>
	<g>
		<g>
			<path class="st9" d="M932.7,107.3c20.8,4,39.5,65.6,34,75.4c-5.6,9.8-44.8-6-44.8-6s1-1.6,1.7-6.8c0.3-2.6,0-8.7,0-8.7l25.1,3.4
				c0,0-8.5-8.1-11.8-18.8C931.6,128.8,924.5,105.8,932.7,107.3z"/>
		</g>
	</g>
</g>
<g>
	<g>
		<path class="st10" d="M948.7,165C948.6,165,948.6,165,948.7,165l-25.2-3.1c-0.2,0-0.3-0.2-0.3-0.3c0-0.2,0.2-0.3,0.3-0.3l25.1,3.1
			c0.2,0,0.3,0.2,0.3,0.3C949,164.9,948.8,165,948.7,165z"/>
	</g>
</g>
<g>
	<g>
		<path class="st10" d="M937.7,182.5L937.7,182.5l-17.2-6c-0.2-0.1-0.2-0.2-0.2-0.4c0.1-0.2,0.2-0.2,0.4-0.2l17.1,6
			c0.2,0.1,0.2,0.2,0.2,0.4C938,182.4,937.9,182.5,937.7,182.5z"/>
	</g>
</g>
<g>
	<g>
		<path class="st10" d="M941.1,154.9c-0.2,0-0.3-0.1-0.3-0.3s-3.4-22-2.8-30.1c0-0.2,0.2-0.3,0.3-0.3c0.2,0,0.3,0.2,0.3,0.3
			c-0.6,8,2.8,29.7,2.8,29.9C941.4,154.7,941.3,154.9,941.1,154.9L941.1,154.9z"/>
	</g>
</g>
<g>
	<g>
		<path class="st10" d="M959.2,168.9c-0.1,0-0.1,0-0.2,0c-4.8-2.6-10.4-3.9-10.4-3.9c-0.1,0-0.2-0.2-0.2-0.3s0.1-0.3,0.2-0.3
			c3.6-0.9,4.9-0.8,4.9-0.8c0.2,0,0.3,0.1,0.3,0.3s-0.1,0.3-0.3,0.3l0,0c0,0-0.9,0-3.5,0.5c2,0.5,5.9,1.7,9.3,3.6
			c0.2,0.1,0.2,0.3,0.1,0.4C959.4,168.8,959.3,168.9,959.2,168.9z"/>
	</g>
</g>
<g>
	<g>
		<path class="st10" d="M938.6,135.2L938.6,135.2c-0.2,0-0.3-0.2-0.3-0.4s1.1-5.2,1.8-7.1c0.1-0.2,0.2-0.2,0.4-0.2
			c0.2,0.1,0.2,0.2,0.2,0.4c-0.7,1.9-1.7,7-1.7,7C938.9,135.1,938.8,135.2,938.6,135.2z"/>
	</g>
</g>
<g>
	<g>
		<path class="st16" d="M901.5,164.1c-0.1,0.9,0.4,1.3,0.4,1.3l6.3-1.1l-5.8-0.8C902.4,163.6,901.5,163.6,901.5,164.1z"/>
	</g>
</g>
<g>
	<g>
		<path class="st16" d="M902.4,167.3c-0.5,0-1.5,0.3-1.1,1.3l2.5-1.3C903.8,167.2,902.8,167.2,902.4,167.3z"/>
	</g>
</g>
<g>
	<g>
		<g>
			<path class="st10" d="M907.6,155.5L907.6,155.5h-2.3c-0.4,0-0.7-0.1-1-0.4c-0.3-0.3-0.4-0.6-0.4-1v-0.9c0-0.8,0.6-1.4,1.4-1.4
				l0,0h2.3c0.8,0,1.4,0.6,1.4,1.4v0.9C909,154.9,908.3,155.5,907.6,155.5z M907.6,154.9L907.6,154.9c0.4,0,0.8-0.3,0.8-0.7v-0.9
				c0-0.4-0.3-0.8-0.7-0.8h-2.3l0,0c-0.4,0-0.7,0.3-0.7,0.7v0.9c0,0.2,0.1,0.4,0.2,0.5c0.1,0.1,0.3,0.2,0.5,0.2L907.6,154.9z"/>
		</g>
	</g>
	<g>
		<g>
			<path class="st10" d="M908.7,157.3L908.7,157.3h-4.5c-0.2,0-0.3-0.1-0.3-0.3s0.1-0.3,0.3-0.3l0,0h4.5c0.2,0,0.3,0.1,0.3,0.3
				S908.9,157.3,908.7,157.3z"/>
		</g>
	</g>
</g>
<g>
	<g>
		<g>
			<g>
				<g>
					<g>
						<path class="st16" d="M921.1,70c-1.8,4.6-4.8,7.7-6.7,7s-1.9-5.1-0.1-9.7c1.8-4.6,4.8-7.7,6.7-7
							C922.9,61.1,922.9,65.4,921.1,70z"/>
					</g>
				</g>
			</g>
		</g>
	</g>
	<g>
		<g>
			<g>
				<g>
					<g>
						<path class="st17" d="M921.2,64.1L921.2,64.1c-0.2,0-0.3-0.2-0.2-0.3c0-0.2,0.1-0.8-0.2-1.1c-0.2-0.2-0.6-0.3-1-0.2
							c-0.2,0-0.3-0.1-0.3-0.2c0-0.2,0.1-0.3,0.2-0.3c0.7-0.1,1.2,0,1.5,0.4c0.6,0.6,0.3,1.6,0.3,1.6
							C921.5,64.1,921.3,64.2,921.2,64.1z"/>
					</g>
				</g>
			</g>
		</g>
	</g>
	<g>
		<g>
			<g>
				<g>
					<g>
						<path class="st17" d="M918.8,71.6C918.7,71.6,918.7,71.6,918.8,71.6c-0.2-0.2-0.2-0.4-0.1-0.5c1.3-1.4,2.3-4.9,2.3-5
							c0-0.2,0.2-0.3,0.3-0.2c0.2,0,0.2,0.2,0.2,0.3c0,0.2-1,3.8-2.4,5.2C919,71.6,918.9,71.6,918.8,71.6z"/>
					</g>
				</g>
			</g>
		</g>
	</g>
</g>
<g>
	<g>
		<path class="st28" d="M224.1,390.2c0,2.9,0.3,5.6-1.1,5.6c-1.4,0-4-2.7-4-5.6s0.5-8.8,1.9-8.8
			C222.3,381.4,224.1,387.3,224.1,390.2z"/>
	</g>
</g>
<g>
	<g>
		<path class="st28" d="M256.4,390.2c0,2.9,1.2,5.7-0.2,5.7s-3.8-2.9-3.8-5.9c0-2.9,0-5.1,1.4-5.1S256.4,387.2,256.4,390.2z"/>
	</g>
</g>
<g>
	<g>
		<g>
			<g>
				<path class="st17" d="M242.6,378.3c0,0,10.6,2,12.3,4.8c0.6,0.9-4.1,2-4.1,2l-6.6-1.2L242.6,378.3z"/>
			</g>
		</g>
	</g>
	<g>
		<g>
			<g>
				<path class="st9" d="M243.5,398.8l-11-0.3c-1.1,0-1.9-0.9-1.9-2l0.6-25.5c0-1.1,0.9-1.9,2-1.9l11,0.3c1.1,0,1.9,0.9,1.9,2
					l-0.6,25.5C245.4,398,244.6,398.8,243.5,398.8z"/>
			</g>
		</g>
	</g>
	<g>
		<g>
			<g>
				<g>
					<path class="st16" d="M254.6,382.9c0,0-5.2-3.5-8.6-1.2c-3,2-3.3,8.6-0.5,10.3c1.9,1.1,4.8,1.1,6.5,1c0.7,0,1.4-0.1,2.1-0.3
						l13.7-2.6L254.6,382.9z"/>
				</g>
			</g>
		</g>
		<g>
			<g>
				<g>
					<path class="st16" d="M248.6,380.9c0,0-14.2,0.8-14.1,2.3c0.1,1.1,4,1.2,7.3,1.1c3.2-0.1,6.1,0,6.1,0L248.6,380.9z"/>
				</g>
			</g>
		</g>
		<g>
			<g>
				<g>
					<path class="st16" d="M246.5,384.6c0,0-12.5,0.2-12.4,1.7c0.1,1.1,4,1.2,7.3,1.1c3.2-0.1,6.1,0,6.1,0L246.5,384.6z"/>
				</g>
			</g>
		</g>
		<g>
			<g>
				<g>
					<path class="st16" d="M247.2,387.7c0,0-12.5,0.2-12.4,1.7c0.1,1.1,4,1.2,7.3,1.1c3.2-0.1,6.1,0,6.1,0L247.2,387.7z"/>
				</g>
			</g>
		</g>
		<g>
			<g>
				<g>
					<path class="st16" d="M249.8,390.7c0,0-12.5,0.2-12.4,1.7c0.1,1.1,4,1.2,7.3,1.1c3.2-0.1,8.5-0.5,8.5-0.5L249.8,390.7z"/>
				</g>
			</g>
		</g>
	</g>
	<g>
		<g>
			<g>
				<g>
					<path class="st17" d="M231,378.9c0,0-8.7,0.9-10.4,2.3c-1,0.8,4.1,3.3,4.1,3.3l6.2-1L231,378.9z"/>
				</g>
			</g>
		</g>
		<g>
			<g>
				<g>
					<path class="st16" d="M220.6,381.2c0,0,5.7-2.3,9,0.1c2.9,2.1,2.9,8.8,0,10.3c-0.6,0.3-1.3,0.5-2.1,0.7
						c-3,0.7-7.9,0.6-10.6-0.8l-5.7-1.3L220.6,381.2z"/>
				</g>
			</g>
		</g>
		<g>
			<g>
				<g>
					<path class="st16" d="M225.8,381.4c-0.4-0.5,0.2-1.2,0.8-1.2c4.1,0.5,14.6,2,14.5,3.2c-0.1,1.1-4,1-7.3,0.7
						c-3.2-0.3-6.1-0.3-6.1-0.3L225.8,381.4z"/>
				</g>
			</g>
		</g>
		<g>
			<g>
				<g>
					<path class="st16" d="M229,384.2c0,0,12.5,0.8,12.3,2.2c-0.1,1.1-4,1-7.3,0.7c-3.2-0.3-6.1-0.3-6.1-0.3L229,384.2z"/>
				</g>
			</g>
		</g>
		<g>
			<g>
				<g>
					<path class="st16" d="M228.2,387.3c0,0,12.5,0.8,12.3,2.2c-0.1,1.1-4,1-7.3,0.7c-3.2-0.3-6.1-0.3-6.1-0.3L228.2,387.3z"/>
				</g>
			</g>
		</g>
		<g>
			<g>
				<g>
					<path class="st16" d="M225.4,390.1c0,0,12.5,0.8,12.3,2.2c-0.1,1.1-4,1-7.3,0.7c-3.2-0.3-7.5-0.3-7.5-0.3L225.4,390.1z"/>
				</g>
			</g>
		</g>
	</g>
</g>
<g>
	<g>
		<g>
			<path class="st14" d="M220.8,381.3c0,0-0.2,2.6,0,7.6c0.2,6.3,2.3,6.9,2.3,6.9v0.1l-25.9,0.2c-4.4-0.4-9.1-1-10.3-5.2
				c-3-10.2,5.7-26.7,10.1-36.5c5.5-12.4,19.1-21.4,22.3-23.4c0.2-0.1,0.4-0.3,0.5-0.4c0.3-0.2,0.6-0.4,0.8-0.6
				c0.9-0.6,1.5-1,1.9-1.2c0.1-0.1,0.1-0.1,0.2-0.1c0.1-0.1,0.1-0.1,0.1-0.1l0,0l-0.2,3.6v0.7l-0.1,14.8l-14.2,33.2L220.8,381.3z"/>
		</g>
	</g>
</g>
<g>
	<g>
		<g>
			<path class="st14" d="M253.4,382.1c0,0,1.7,3.2,2,5c0.8,5.4,0.8,8.8,0.8,8.8l25.9,0.1c4.4-0.4,9.1-1,10.3-5.2
				c3-10.2-6.7-26.5-11.1-36.3c-5.5-12.4-22.3-23.9-22.6-24.1c-0.9-0.6-1.4-0.8-1.8-1c-0.1-0.1-0.2,2.8-0.2,2.8v0.7l0.1,14.8
				l14.2,33.2L253.4,382.1z"/>
		</g>
	</g>
</g>
<g>
	<g>
		<g>
			<path class="st28" d="M257.6,329.6c0,0.1-0.1,0.1-0.1,0.1c-0.2,0.2-0.4,0.4-0.7,0.6c-3.9,3.4-9.5,6.5-17.3,6.7h-0.8
				c-6.3,0-12-2.1-16.2-4.3c-1.1-0.6-2.1-1.2-3-1.7c-0.1-0.1-0.2-0.1-0.3-0.2c0.2-0.1,0.4-0.3,0.5-0.4c0.1,0,0.1,0.1,0.2,0.1
				c0.8,0.5,1.7,1,2.7,1.5c4.1,2.2,9.8,4.4,16.1,4.4h0.7c7.8-0.2,13.3-3.4,17.1-6.7c0.1-0.1,0.2-0.2,0.3-0.3
				c0.1-0.1,0.1-0.1,0.2-0.1C257.2,329.4,257.4,329.5,257.6,329.6z"/>
		</g>
	</g>
</g>
<g>
	<g>
		<g>
			<path class="st28" d="M212.9,370.2C212.9,370.2,212.8,370.2,212.9,370.2c-0.2-0.1-0.3-0.2-0.3-0.4l5.6-22.3
				c0-0.2,0.2-0.3,0.4-0.2c0.2,0,0.3,0.2,0.2,0.4l-5.6,22.3C213.2,370.1,213,370.2,212.9,370.2z"/>
		</g>
	</g>
	<g>
		<g>
			<path class="st28" d="M198.8,381.9c-0.2,0-0.3-0.1-0.3-0.3c0-0.2,0.1-0.3,0.3-0.3c9.8-1,16.8-1.1,22-0.3c0.2,0,0.3,0.2,0.3,0.4
				c0,0.2-0.2,0.3-0.4,0.3C215.5,380.8,208.5,380.9,198.8,381.9L198.8,381.9z"/>
		</g>
	</g>
	<g>
		<g>
			<path class="st28" d="M215.8,358.4c-0.2,0-0.3-0.1-0.3-0.3l-0.3-7.3c0-0.2,0.1-0.3,0.3-0.3s0.3,0.1,0.3,0.3l0.3,7.3
				C216.2,358.3,216,358.4,215.8,358.4C215.9,358.4,215.9,358.4,215.8,358.4z"/>
		</g>
	</g>
</g>
<g>
	<g>
		<g>
			<path class="st28" d="M266,369.8c-0.1,0-0.3-0.1-0.3-0.2l-5.2-21.9c0-0.2,0.1-0.3,0.2-0.4c0.2,0,0.3,0.1,0.4,0.2l5.2,21.9
				C266.3,369.6,266.2,369.7,266,369.8L266,369.8z"/>
		</g>
	</g>
	<g>
		<g>
			<path class="st28" d="M253.6,382.5c-0.2,0-0.3-0.1-0.3-0.3c0-0.2,0.1-0.3,0.3-0.4c9.5-1.5,18.2-1.8,25.8-0.9
				c0.2,0,0.3,0.2,0.3,0.3c0,0.2-0.2,0.3-0.3,0.3C271.7,380.7,263.1,381,253.6,382.5L253.6,382.5z"/>
		</g>
	</g>
	<g>
		<g>
			<path class="st28" d="M263.4,358.4L263.4,358.4c-0.2,0-0.3-0.2-0.3-0.3l0.3-7.3c0-0.2,0.2-0.3,0.3-0.3c0.2,0,0.3,0.2,0.3,0.3
				l-0.3,7.3C263.7,358.3,263.6,358.4,263.4,358.4z"/>
		</g>
	</g>
</g>
<g>
	<g>
		<g>
			<path class="st10" d="M236.6,375L236.6,375l-2.4-0.1c-0.4,0-0.7-0.2-1-0.4c-0.3-0.3-0.4-0.6-0.4-1v-0.9c0-0.4,0.2-0.7,0.4-1
				c0.3-0.3,0.6-0.4,1-0.4l2.3,0.1c0.8,0,1.4,0.6,1.3,1.4v0.9C237.9,374.4,237.3,375,236.6,375z M234.3,371.9
				c-0.4,0-0.7,0.3-0.7,0.7v0.9c0,0.2,0.1,0.4,0.2,0.5c0.1,0.1,0.3,0.2,0.5,0.2l2.3,0.1c0.4,0,0.8-0.3,0.8-0.7v-0.9
				c0-0.2-0.1-0.4-0.2-0.5c-0.1-0.1-0.3-0.2-0.5-0.2L234.3,371.9L234.3,371.9z"/>
		</g>
	</g>
	<g>
		<g>
			<path class="st10" d="M237.7,376.8L237.7,376.8l-4.6-0.1c-0.2,0-0.3-0.1-0.3-0.3c0-0.2,0.1-0.3,0.3-0.3l4.5,0.1
				c0.2,0,0.3,0.1,0.3,0.3C238,376.7,237.8,376.8,237.7,376.8z"/>
		</g>
	</g>
</g>
<g class="st24">
	<g>
		<path class="st9" d="M861.7,12.7c-2.8,0-5-2.2-5-5s2.2-5,5-5s5,2.2,5,5S864.5,12.7,861.7,12.7z M861.7,4c-2.1,0-3.7,1.7-3.7,3.7
			s1.7,3.7,3.7,3.7s3.7-1.7,3.7-3.7S863.8,4,861.7,4z"/>
	</g>
</g>
<g class="st24">
	<g>
		<path class="st9" d="M983.8,150.2c-1.6,0-3-1.3-3-3c0-1.6,1.3-3,3-3c1.6,0,3,1.3,3,3C986.7,148.9,985.4,150.2,983.8,150.2z
			 M983.8,145.5c-0.9,0-1.7,0.8-1.7,1.7s0.8,1.7,1.7,1.7s1.7-0.8,1.7-1.7S984.7,145.5,983.8,145.5z"/>
	</g>
</g>
<g class="st24">
	<g>
		<path class="st9" d="M413.4,88.6c-2.3,0-4.1-1.9-4.1-4.1c0-2.3,1.9-4.1,4.1-4.1c2.3,0,4.1,1.9,4.1,4.1
			C417.5,86.8,415.7,88.6,413.4,88.6z M413.4,81.6c-1.6,0-2.9,1.3-2.9,2.9s1.3,2.9,2.9,2.9s2.9-1.3,2.9-2.9S415,81.6,413.4,81.6z"/>
	</g>
</g>
</svg>
